[
  {
    "package": "@rxap/schematic-angular",
    "name": "table-component",
    "options": {
      "name": "minimum",
      "tableMethod": {
        "name": "DummyTableMethod",
        "moduleSpecifier": "../dummy-table.method"
      },
      "columnList": [
        {
          "name": "name"
        },
        {
          "name": "age",
          "type": "number"
        },
        {
          "name": "isActive",
          "type": "boolean"
        },
        {
          "name": "email"
        },
        {
          "name": "rating",
          "type": "number"
        },
        {
          "name": "accountStatus"
        }
      ]
    }
  }
]
