{
  "name": "plugin-typedoc",
  "$schema": "../../../node_modules/nx/schemas/project-schema.json",
  "sourceRoot": "packages/plugin/typedoc/src",
  "projectType": "library",
  "release": {
    "version": {
      "generatorOptions": {
        "packageRoot": "dist/{projectRoot}",
        "currentVersionResolver": "git-tag"
      }
    }
  },
  "tags": ["plugin", "nx", "nx-plugin", "packages"],
  "targets": {
    "build": {
      "executor": "@nx/js:tsc",
      "outputs": ["{options.outputPath}"],
      "options": {
        "outputPath": "dist/packages/plugin/typedoc",
        "main": "packages/plugin/typedoc/src/index.ts",
        "tsConfig": "packages/plugin/typedoc/tsconfig.lib.json",
        "generateExportsField": true,
        "additionalEntryPoints": ["packages/plugin/typedoc/src/plugin.ts"],
        "assets": [
          "packages/plugin/typedoc/*.md",
          {
            "input": "./packages/plugin/typedoc/src",
            "glob": "**/!(*.ts)",
            "output": "./src"
          },
          {
            "input": "./packages/plugin/typedoc/src",
            "glob": "**/*.d.ts",
            "output": "./src"
          },
          {
            "input": "./packages/plugin/typedoc",
            "glob": "generators.json",
            "output": "."
          },
          {
            "input": "./packages/plugin/typedoc",
            "glob": "executors.json",
            "output": "."
          },
          "packages/plugin/typedoc/docs"
        ]
      }
    }
  }
}
