{
  "name": "angular-open-api",
  "$schema": "../../../node_modules/nx/schemas/project-schema.json",
  "sourceRoot": "packages/angular/open-api/src",
  "prefix": "rxap",
  "projectType": "library",
  "tags": ["angular", "ngx", "packages", "scope:compose"],
  "targets": {
    "build": {
      "executor": "@nx/angular:package",
      "outputs": ["{workspaceRoot}/dist/{projectRoot}"],
      "options": {
        "project": "packages/angular/open-api/ng-package.json"
      },
      "configurations": {
        "production": {
          "tsConfig": "packages/angular/open-api/tsconfig.lib.prod.json"
        },
        "development": {
          "tsConfig": "packages/angular/open-api/tsconfig.lib.json"
        }
      },
      "defaultConfiguration": "production"
    },
    "fix-dependencies": {
      "options": {
        "dependencies": ["ajv", "openapi-types"]
      }
    },
    "lint": {
      "options": {
        "lintFilePatterns": [
          "packages/angular/open-api/**/*.ts",
          "packages/angular/open-api/**/*.html",
          "packages/angular/open-api/remote-method/**/*.ts",
          "packages/angular/open-api/remote-method/**/*.html"
        ]
      }
    }
  }
}
