<?xml version="1.0" encoding="utf-8"?>
<!-- Svg Vector Icons : http://www.onlinewebfonts.com/icon -->
<!DOCTYPE svg PUBLIC "-//W3C//DTD SVG 1.1//EN" "http://www.w3.org/Graphics/SVG/1.1/DTD/svg11.dtd">
<svg enable-background="new 0 0 256 256" version="1.1" viewBox="0 0 256 256" x="0px" xml:space="preserve"
     xmlns="http://www.w3.org/2000/svg"
     y="0px">
<metadata> Svg Vector Icons : http://www.onlinewebfonts.com/icon </metadata>
<g><g><path d="M227.5,10H28.4C18.3,10,10,18.3,10,28.4v199.1c0,10.2,8.3,18.4,18.4,18.4h199.1c10.2,0,18.4-8.3,18.4-18.4V28.4C246,18.3,237.7,10,227.5,10z M179.6,28.4c6.1,0,11.1,5,11.1,11.1c0,6.1-5,11.1-11.1,11.1c-6.1,0-11.1-5-11.1-11.1C168.5,33.4,173.5,28.4,179.6,28.4L179.6,28.4z M142.7,28.4c6.1,0,11.1,5,11.1,11.1c0,6.1-5,11.1-11.1,11.1c-6.1,0-11.1-5-11.1-11.1C131.7,33.4,136.6,28.4,142.7,28.4L142.7,28.4z M227.5,227.5H28.4V69h199.1L227.5,227.5L227.5,227.5z M216.5,50.5c-6.1,0-11.1-5-11.1-11.1c0-6.1,5-11.1,11.1-11.1c6.1,0,11.1,5,11.1,11.1C227.5,45.6,222.6,50.5,216.5,50.5z" fill="#ffffff"/><path d="M102.2,161.2H209v18.4H102.2V161.2z" fill="#ffffff"/><path d="M46.9,87.4h18.4v18.4H46.9V87.4z" fill="#ffffff"/><path d="M65.3,105.9h18.4v18.4H65.3V105.9z" fill="#ffffff"/><path d="M83.7,124.3h18.4v18.4H83.7V124.3L83.7,124.3z" fill="#ffffff"/><path d="M65.3,142.7h18.4v18.4H65.3V142.7z" fill="#ffffff"/><path d="M46.9,161.2h18.4v18.4H46.9V161.2z" fill="#ffffff"/></g></g>
</svg>
