{
  "node": "n8n-nodes-base.rxapFirecrawl",
  "nodeVersion": "1.0",
  "codexVersion": "1.0",
  "categories": [
    "Data & Storage"
  ],
  "resources": {
    "credentialDocumentation": [],
    "primaryDocumentation": []
  },
  "alias": [
    "Firecrawl",
    "firecrawl"
  ]
}