{
  "$schema": "http://json-schema.org/schema",
  "$id": "ConvertToBuildableLibrary",
  "title": "",
  "type": "object",
  "properties": {
    "project": {
      "type": "string"
    }
  },
  "required": ["project"]
}
