<?xml version="1.0" encoding="utf-8"?>
<!-- Svg Vector Icons : http://www.onlinewebfonts.com/icon -->
<!DOCTYPE svg PUBLIC "-//W3C//DTD SVG 1.1//EN" "http://www.w3.org/Graphics/SVG/1.1/DTD/svg11.dtd">
<svg enable-background="new 0 0 256 256" version="1.1" viewBox="0 0 256 256" x="0px" xml:space="preserve"
     xmlns="http://www.w3.org/2000/svg"
     y="0px">
<metadata> Svg Vector Icons : http://www.onlinewebfonts.com/icon </metadata>
<g><g><path d="M240.2,212.4l-56.4-56.5c-0.7-0.7-1.4-1.2-2.1-1.7c9.5-14.6,15.1-32.1,15.1-50.8c0-51.6-41.8-93.4-93.4-93.4C51.8,10,10,51.8,10,103.4c0,51.6,41.8,93.4,93.4,93.4c18.8,0,36.2-5.6,50.9-15.1c0.5,0.7,1,1.4,1.7,2l56.5,56.5c3.9,3.9,8.9,5.8,13.9,5.8s10.1-1.9,13.9-5.8C247.9,232.5,247.9,220.1,240.2,212.4 M103.4,167.3c-35.2,0-63.9-28.7-63.9-63.9s28.7-63.9,63.9-63.9c35.2,0,63.9,28.7,63.9,63.9S138.6,167.3,103.4,167.3" fill="#000000"/><path d="M141.5,128.2c-2.6,1.4-7.6,2.4-13.5,2.4c-5.9,0-10.9-1-13.5-2.4c-3.3-1.3-5.8-3.2-7.1-5.3c-0.6,1-1,2-1,3.1c0,5.9,9.7,10.8,21.6,10.8c11.9,0,21.6-4.8,21.6-10.8c0-1.1-0.4-2.1-1-3.1C147.3,125,144.8,126.9,141.5,128.2z M141.5,119c-2.6,1.4-7.6,2.4-13.5,2.4c-5.9,0-10.9-1-13.5-2.4c-3.3-1.3-5.8-3.2-7.1-5.3c-0.6,1-1,2-1,3.1c0,5.9,9.7,10.8,21.6,10.8c11.9,0,21.6-4.8,21.6-10.8c0-1.1-0.4-2.1-1-3.1C147.3,115.8,144.8,117.6,141.5,119z M112.7,115.2c3.9,2,9.3,3.2,15.2,3.2c5.9,0,11.3-1.2,15.2-3.2c2-1,3.5-2.1,4.6-3.4c1.1-1.3,1.7-2.7,1.7-4.2c0-0.6-0.1-1.2-0.3-1.7c-1.7-5.2-10.5-9.1-21.2-9.1c-10.7,0-19.6,3.9-21.2,9.1c-0.2,0.6-0.3,1.1-0.3,1.7c0,1.5,0.6,2.9,1.7,4.2C109.2,113,110.8,114.2,112.7,115.2z M141.5,137.5c-2.6,1.4-7.6,2.4-13.5,2.4c-5.9,0-10.9-1-13.5-2.4c-3.3-1.3-5.8-3.2-7.1-5.3c-0.6,1-1,2-1,3.1c0,5.9,9.7,10.8,21.6,10.8c11.9,0,21.6-4.8,21.6-10.8c0-1.1-0.4-2.1-1-3.1C147.3,134.3,144.8,136.1,141.5,137.5z" fill="#000000"/><path d="M93.3,103.5c3.3,0,6.4-0.2,9.4-0.7v-0.3c5.2-7.4,13.7-12.3,23.3-12.3c0.5-1.1,0.7-2.2,0.7-3.4c0-1.7-0.6-3.3-1.5-4.8c-2,3.3-5.8,6.1-11,8.2c-4,2.2-11.8,3.8-20.9,3.8c-9.1,0-16.9-1.5-20.9-3.8c-5.2-2.1-9-4.9-11-8.2c-0.9,1.5-1.5,3.1-1.5,4.8C59.9,96,74.9,103.5,93.3,103.5z" fill="#000000"/><path d="M69.7,84.3c6,3,14.4,4.9,23.6,4.9s17.6-1.9,23.6-4.9c3-1.5,5.5-3.3,7.2-5.3c1.7-2,2.6-4.2,2.6-6.5c0-0.9-0.2-1.8-0.5-2.6c-2.6-8-16.2-14.1-32.9-14.1s-30.3,6.1-32.9,14c-0.3,0.9-0.5,1.8-0.5,2.6c0,2.3,0.9,4.5,2.6,6.5C64.2,81,66.7,82.8,69.7,84.3z" fill="#000000"/><path d="M102.7,122c-2.9,0.4-6,0.6-9.4,0.6c-9.1,0-16.9-1.5-20.9-3.8c-5.2-2.1-9-4.9-11-8.2c-0.9,1.5-1.5,3.1-1.5,4.8c0,9.2,15,16.7,33.4,16.7c3.3,0,6.4-0.2,9.4-0.7V122L102.7,122z" fill="#000000"/><path d="M93.3,117.8c3.3,0,6.4-0.2,9.4-0.7v-9.5c-2.9,0.4-6,0.6-9.4,0.6c-9.1,0-16.9-1.5-20.9-3.8c-5.2-2.1-9-4.9-11-8.2c-0.9,1.5-1.5,3.1-1.5,4.8C59.9,110.3,74.9,117.8,93.3,117.8z" fill="#000000"/></g></g>
</svg>
