{
  "node": "n8n-nodes-base.cqrsQuery",
  "nodeVersion": "1.0",
  "codexVersion": "1.0",
  "categories": ["Development"],
  "resources": {
    "credentialDocumentation": [],
    "primaryDocumentation": []
  },
  "alias": ["query"]
}
