{
  "$schema": "node_modules/lerna/schemas/lerna-schema.json",
  "version": "independent",
  "npmClient": "yarn",
  "command": {
    "version": {
      "message": "chore(release): version",
      "conventionalCommits": true,
      "allowBranch": [
        "development",
        "latest",
        "next",
        "+(1|2|3|4|5|6|7|8|9|0).x.x",
        "+(1|2|3|4|5|6|7|8|9|0).+(1|2|3|4|5|6|7|8|9|0).x",
        "+(1|2|3|4|5|6|7|8|9|0).x.x-dev",
        "+(1|2|3|4|5|6|7|8|9|0).+(1|2|3|4|5|6|7|8|9|0).x-dev"
      ],
      "ignoreChanges": [
        "**/*.spec.ts",
        "**/*.stories.ts",
        "**/*.cy.ts",
        "**/*.js",
        "**/*.handlebars",
        "**/tsconfig.json",
        "**/tsconfig.*.json",
        ".gitlab/**",
        "gitlab-ci.yml",
        "**/project.json",
        "**/nx.json",
        "**/.gitignore",
        "**/coverage/**",
        "**/docs/**",
        "**/angular/**/compodoc/**",
        "**/.storybook/**",
        "**/cypress/**"
      ]
    }
  }
}
