{
  "$schema": "http://json-schema.org/schema",
  "$id": "open-api-table-action-schematic",
  "allOf": [
    {
      "$ref": "#/definitions/tableActionSchematic"
    },
    {
      "$ref": "#/definitions/openApiTableAction"
    }
  ],
  "definitions": {
    "tableActionSchematic": {
      "$ref": "../../table-action/template.schema.json"
    },
    "openApiTableAction": {
      "$ref": "../../../open-api-table-action.schema.json"
    }
  }
}
