{
  "name": "angular-components",
  "$schema": "../../../node_modules/nx/schemas/project-schema.json",
  "sourceRoot": "packages/angular/components/src",
  "prefix": "rxap",
  "projectType": "library",
  "tags": ["angular", "ngx", "packages", "scope:utilities"],
  "targets": {
    "build": {
      "executor": "@nx/angular:package",
      "outputs": ["{workspaceRoot}/dist/{projectRoot}"],
      "options": {
        "project": "packages/angular/components/ng-package.json"
      },
      "configurations": {
        "production": {
          "tsConfig": "packages/angular/components/tsconfig.lib.prod.json"
        },
        "development": {
          "tsConfig": "packages/angular/components/tsconfig.lib.json"
        }
      },
      "defaultConfiguration": "production"
    },
    "component-test": {
      "options": {
        "cypressConfig": "packages/angular/components/cypress.config.ts",
        "devServerTarget": "angular:build"
      }
    },
    "lint": {
      "options": {
        "lintFilePatterns": [
          "packages/angular/components/**/*.ts",
          "packages/angular/components/**/*.html"
        ]
      }
    }
  }
}
