{
  "name": "nest-sentry",
  "$schema": "../../../node_modules/nx/schemas/project-schema.json",
  "sourceRoot": "packages/nest/sentry/src",
  "projectType": "library",
  "tags": ["nest", "packages", "scope:integration"],
  "targets": {
    "build": {
      "executor": "@nx/js:tsc",
      "outputs": ["{options.outputPath}"],
      "options": {
        "outputPath": "dist/packages/nest/sentry",
        "tsConfig": "packages/nest/sentry/tsconfig.lib.json",
        "packageJson": "packages/nest/sentry/package.json",
        "main": "packages/nest/sentry/src/index.ts",
        "assets": [
          "packages/nest/sentry/*.md",
          {
            "input": "./packages/nest/sentry",
            "glob": "migrations.json",
            "output": "."
          },
          {
            "input": "./packages/nest/sentry/src/migrations",
            "glob": "**/!(*.ts|*.js|*.json)",
            "output": "./src/migrations"
          },
          "packages/nest/sentry/docs",
          "packages/nest/sentry/compodoc"
        ]
      },
      "configurations": {
        "production": {
          "tsConfig": "packages/nest/sentry/tsconfig.lib.prod.json"
        },
        "development": {}
      },
      "defaultConfiguration": "development"
    },
    "lint": {
      "options": {
        "lintFilePatterns": ["packages/nest/sentry/**/*.ts"]
      }
    }
  }
}
