{
  "name": "n8n-nodes-ipfs",
  "$schema": "../../../../node_modules/nx/schemas/project-schema.json",
  "sourceRoot": "packages/n8n/nodes/ipfs/src",
  "projectType": "library",
  "release": {
    "version": {
      "generatorOptions": {
        "packageRoot": "dist/{projectRoot}",
        "currentVersionResolver": "git-tag"
      }
    }
  },
  "tags": ["packages", "n8n", "nodes"],
  "targets": {
    "build": {
      "executor": "@nx/js:tsc",
      "outputs": ["{options.outputPath}"],
      "options": {
        "outputPath": "dist/packages/n8n/nodes/ipfs",
        "main": "packages/n8n/nodes/ipfs/src/index.ts",
        "tsConfig": "packages/n8n/nodes/ipfs/tsconfig.lib.json",
        "assets": [
          "packages/n8n/nodes/ipfs/*.md",
          {
            "input": "./packages/n8n/nodes/ipfs/src/generators",
            "glob": "**/!(*.ts|*.js|*.json)",
            "output": "./src/generators"
          },
          {
            "input": "./packages/n8n/nodes/ipfs",
            "glob": "generators.json",
            "output": "."
          },
          {
            "input": "./packages/n8n/nodes/ipfs/src/lib",
            "glob": "**/*.(svg|json|png)",
            "output": "./src/lib"
          },
          "packages/n8n/nodes/ipfs/docs"
        ]
      }
    },
    "nx-release-publish": {
      "options": {
        "packageRoot": "dist/{projectRoot}"
      }
    }
  }
}
