{
  "name": "angular-life-cycle",
  "$schema": "../../../node_modules/nx/schemas/project-schema.json",
  "sourceRoot": "packages/angular/life-cycle/src",
  "prefix": "rxap",
  "projectType": "library",
  "tags": ["angular", "ngx", "packages", "scope:utilities"],
  "targets": {
    "build": {
      "executor": "@nx/angular:package",
      "outputs": ["{workspaceRoot}/dist/{projectRoot}"],
      "options": {
        "project": "packages/angular/life-cycle/ng-package.json"
      },
      "configurations": {
        "production": {
          "tsConfig": "packages/angular/life-cycle/tsconfig.lib.prod.json"
        },
        "development": {
          "tsConfig": "packages/angular/life-cycle/tsconfig.lib.json"
        }
      },
      "defaultConfiguration": "production"
    },
    "lint": {
      "options": {
        "lintFilePatterns": [
          "packages/angular/life-cycle/**/*.ts",
          "packages/angular/life-cycle/**/*.html"
        ]
      }
    }
  }
}
