{
  "$schema": "http://json-schema.org/schema",
  "$id": "form-control",
  "allOf": [
    {
      "type": "object",
      "properties": {
        "role": {
          "type": "string",
          "const": "control",
          "default": "control"
        }
      }
    },
    {
      "oneOf": [
        {
          "allOf": [
            {
              "$ref": "#/definitions/baseFormControl"
            },
            {
              "type": "object",
              "properties": {
                "kind": {
                  "type": "string",
                  "const": "default",
                  "default": "default"
                }
              }
            }
          ]
        },
        {
          "$ref": "#/definitions/inputFormControl"
        },
        {
          "$ref": "#/definitions/selectFormControl"
        },
        {
          "$ref": "#/definitions/checkboxFormControl"
        },
        {
          "$ref": "#/definitions/textareaFormControl"
        },
        {
          "$ref": "#/definitions/tableSelectFormControl"
        },
        {
          "$ref": "#/definitions/slideToggleFormControl"
        },
        {
          "$ref": "#/definitions/autocompleteTableSelectFormControl"
        },
        {
          "$ref": "#/definitions/autocompleteFormControl"
        },
        {
          "$ref": "#/definitions/dateFormControl"
        }
      ]
    }
  ],
  "definitions": {
    "baseFormControl": {
      "$ref": "./base-form-control.schema.json"
    },
    "inputFormControl": {
      "$ref": "./input-form-control.schema.json"
    },
    "selectFormControl": {
      "$ref": "./select-form-control.schema.json"
    },
    "checkboxFormControl": {
      "$ref": "./checkbox-form-control.schema.json"
    },
    "textareaFormControl": {
      "$ref": "./textarea-form-control.schema.json"
    },
    "tableSelectFormControl": {
      "$ref": "./table-select-form-control.schema.json"
    },
    "autocompleteTableSelectFormControl": {
      "$ref": "./autocomplete-table-select-form-control.schema.json"
    },
    "autocompleteFormControl": {
      "$ref": "./autocomplete-form-control.schema.json"
    },
    "slideToggleFormControl": {
      "$ref": "./slide-toggle-form-control.schema.json"
    },
    "dateFormControl": {
      "$ref": "./date-form-control.schema.json"
    }
  }
}
