{
  "$schema": "http://json-schema.org/schema",
  "$id": "form-group",
  "allOf": [
    {
      "type": "object",
      "properties": {
        "role": {
          "type": "string",
          "const": "group"
        }
      },
      "required": [ "role" ]
    },
    {
      "oneOf": [
        {
          "allOf": [
            {
              "$ref": "#/definitions/baseFormGroup"
            },
            {
              "type": "object",
              "properties": {
                "kind": {
                  "type": "string",
                  "const": "default",
                  "default": "default"
                }
              }
            }
          ]
        }
      ]
    }
  ],
  "definitions": {
    "baseFormGroup": {
      "$ref": "./base-form-group.schema.json"
    }
  }
}
