{
  "$schema": "http://json-schema.org/schema",
  "$id": "icon-table-column",
  "allOf": [
    {
      "$ref": "#/definitions/baseTableColumn"
    },
    {
      "type": "object",
      "properties": {
        "kind": {
          "type": "string",
          "const": "icon"
        }
      },
      "required": ["kind"]
    }
  ],
  "definitions": {
    "baseTableColumn": {
      "$ref": "./base-table-column.schema.json"
    }
  }
}
