{
  "$schema": "http://json-schema.org/schema",
  "$id": "method-header-button",
  "allOf": [
    {
      "$ref": "#/definitions/baseHeaderButton"
    },
    {
      "type": "object",
      "properties": {
        "kind": {
          "type": "string",
          "const": "method",
          "default": "method"
        },
        "method": {
          "$ref": "#/definitions/method"
        }
      },
      "required": ["method"]
    }
  ],
  "definitions": {
    "baseHeaderButton": {
      "$ref": "./base-header-button.schema.json"
    },
    "method": {
      "$ref": "./method.schema.json"
    }
  }
}
