{
  "$schema": "http://json-schema.org/schema",
  "$id": "select-form-control",
  "allOf": [
    {
      "$ref": "#/definitions/baseFormControl"
    },
    {
      "type": "object",
      "properties": {
        "formField": {
          "$ref": "#/definitions/formField"
        },
        "kind": {
          "type": "string",
          "const": "select"
        },
        "upstream": {
          "$ref": "#/definitions/upstream"
        },
        "optionList": {
          "type": "array",
          "items": {
            "$ref": "#/definitions/option"
          }
        },
        "backend": {
          "$ref": "#/definitions/backend"
        },
        "multiple": {
          "alias": "multi",
          "type": "boolean",
          "description": "Whether the select form control is multiple mode"
        }
      },
      "required": ["kind"]
    }
  ],
  "definitions": {
    "backend": {
      "$ref": "./backend.schema.json"
    },
    "formField": {
      "$ref": "./form-field.schema.json"
    },
    "baseFormControl": {
      "$ref": "./base-form-control.schema.json"
    },
    "upstream": {
      "$ref": "./upstream.schema.json"
    },
    "option": {
      "$ref": "./option.schema.json"
    }
  }
}
