{
  "$schema": "http://json-schema.org/schema",
  "$id": "switch-accordion-item",
  "allOf": [
    {
      "$ref": "#/definitions/baseAccordionItem"
    },
    {
      "type": "object",
      "properties": {
        "kind": {
          "type": "string",
          "const": "switch"
        },
        "switch": {
          "type": "object",
          "properties": {
            "property": {
              "$ref": "#/definitions/property"
            },
            "defaultCase": {
              "type": "object",
              "properties": {
                "itemList": {
                  "alias": "item",
                  "type": "array",
                  "items": {
                    "$ref": "#/definitions/accordionItem"
                  },
                  "description": "The list of accordion expansion panels"
                }
              },
              "required": ["itemList"]
            },
            "case": {
              "type": "array",
              "items": {
                "type": "object",
                "properties": {
                  "test": {
                    "anyOf": [
                      {
                        "type": "string"
                      },
                      {
                        "type": "number"
                      },
                      {
                        "type": "boolean"
                      }
                    ]
                  },
                  "itemList": {
                    "alias": "item",
                    "type": "array",
                    "items": {
                      "$ref": "#/definitions/accordionItem"
                    },
                    "description": "The list of accordion expansion panels"
                  }
                },
                "required": ["test", "itemList"]
              }
            }
          },
          "required": ["property"]
        }
      },
      "required": ["kind"]
    }
  ],
  "definitions": {
    "baseAccordionItem": {
      "$ref": "./base-accordion-item.schema.json"
    },
    "accordionItem": {
      "$ref": "./accordion-item.schema.json"
    },
    "property": {
      "$ref": "./property.schema.json"
    }
  }
}
