{
  "name": "open-api-service-changelog",
  "$schema": "../../../../node_modules/nx/schemas/project-schema.json",
  "sourceRoot": "demos/open-api/service/changelog/src",
  "projectType": "library",
  "tags": ["open-api", "packages", "service"],
  "// targets": "to see all targets run: nx show project open-api-service-changelog --web",
  "targets": {}
}
