{
  "name": "angular-user",
  "$schema": "../../../node_modules/nx/schemas/project-schema.json",
  "sourceRoot": "packages/angular/user/src",
  "prefix": "rxap",
  "projectType": "library",
  "tags": ["angular", "ngx", "packages", "scope:compose"],
  "targets": {
    "copy-open-api-sdk": {
      "inputs": ["{workspaceRoot}/packages/open-api/service/user/src/lib"],
      "options": {
        "clientSdkProject": "open-api-service-user",
        "angular": true,
        "skipDirectives": true,
        "skipDataSources": true
      }
    },
    "build": {
      "executor": "@nx/angular:package",
      "outputs": ["{workspaceRoot}/dist/{projectRoot}"],
      "options": {
        "project": "packages/angular/user/ng-package.json"
      },
      "configurations": {
        "production": {
          "tsConfig": "packages/angular/user/tsconfig.lib.prod.json"
        },
        "development": {
          "tsConfig": "packages/angular/user/tsconfig.lib.json"
        }
      },
      "defaultConfiguration": "production"
    }
  }
}
