{
  "$schema": "http://json-schema.org/schema",
  "$id": "InitLibrary",
  "title": "",
  "type": "object",
  "properties": {
    "project": {
      "type": "string"
    },
    "projects": {
      "type": "array",
      "items": {
        "type": "string"
      }
    },
    "overwrite": {
      "type": "boolean",
      "default": false,
      "description": "Whether to overwrite existing files"
    },
    "skipFormat": {
      "type": "boolean",
      "default": false
    },
    "skipProjects": {
      "type": "boolean",
      "default": false,
      "description": "Whether to skip executing project specific initialization"
    },
    "targets": {
      "type": "object",
      "properties": {
        "fixDependencies": {
          "type": "boolean",
          "description": "If set to false the target fix-dependencies will not be added to the project"
        },
        "indexExport": {
          "type": "boolean",
          "description": "If set to false the target index-export will not be added to the project"
        }
      }
    }
  },
  "required": []
}
