{
  "$schema": "https://json-schema.org/schema",
  "$id": "CloudDeploy",
  "title": "kraft cloud deploy",
  "type": "object",
  "description": "'kraft cloud deploy' combines a number of kraft cloud sub-commands to enable you to build, package, ship, and deploy your application with a single command.",
  "properties": {
    "as": { "type": "string", "description": "Set the deployment type" },
    "build-arg": { "type": "array", "items": { "type": "string" }, "description": "Supply build arguments when building a Dockerfile" },
    "build-log": { "type": "string", "description": "Use the specified file to save the output from the build" },
    "build-secret": { "type": "array", "items": { "type": "string" }, "description": "Supply secrets when building Dockerfile" },
    "build-target": { "type": "string", "description": "Supply multi-stage target when building Dockerfile" },
    "certificate": { "type": "array", "items": { "type": "string" }, "description": "Set the certificates to use for the service" },
    "compress": { "type": "boolean", "description": "Compress the initrd package (experimental)" },
    "config": { "type": "string", "description": "Override the path to the KConfig .config file" },
    "dbg": { "type": "boolean", "description": "Build the debuggable (symbolic) kernel image instead of the stripped image" },
    "domain": { "type": "array", "items": { "type": "string" }, "description": "Set the domain names for the service" },
    "entrypoint": { "type": "array", "items": { "type": "string" }, "description": "Set the entrypoint for the instance" },
    "env": { "type": "array", "items": { "type": "string" }, "description": "Environmental variables" },
    "feature": { "type": "array", "items": { "type": "string" }, "description": "Specify the special features to enable" },
    "follow": { "type": "boolean", "description": "Follow the logs of the instance" },
    "force-pull": { "type": "boolean", "description": "Force pulling packages before building" },
    "help": { "type": "boolean", "description": "Show help for deploy" },
    "image": { "type": "string", "description": "Set the image name to use" },
    "jobs": { "type": "number", "description": "Allow N jobs at once" },
    "kraftfile": { "type": "string", "description": "Set the Kraftfile to use" },
    "memory": { "type": "string", "description": "Specify the amount of memory to allocate (MiB increments)" },
    "name": { "type": "string", "description": "Name of the deployment" },
    "no-cache": { "type": "boolean", "description": "Force a rebuild even if existing intermediate artifacts already exist" },
    "no-configure": { "type": "boolean", "description": "Do not run Unikraft's configure step before building" },
    "no-fast": { "type": "boolean", "description": "Do not use maximum parallelization when performing the build" },
    "no-fetch": { "type": "boolean", "description": "Do not run Unikraft's fetch step before building" },
    "no-start": { "type": "boolean", "description": "Do not start the instance after creation" },
    "no-update": { "type": "boolean", "description": "Do not update package index before running the build" },
    "output": { "type": "string", "description": "Set output format" },
    "port": { "type": "array", "items": { "type": "string" }, "description": "Specify the port mapping between external to internal" },
    "replicas": { "type": "number", "description": "Number of replicas of the instance" },
    "restart": { "type": "string", "description": "Set the restart policy for the instance (never/always/on-failure)" },
    "rollout": { "type": "string", "description": "Set the rollout strategy for an instance which has been previously run in the provided service" },
    "rollout-qualifier": { "type": "string", "description": "Set the rollout qualifier used to determine which instances should be affected by the strategy in the supplied service" },
    "rollout-wait": { "type": "string", "description": "Time to wait before performing rolling out action" },
    "rootfs": { "type": "string", "description": "Specify a path to use as root filesystem" },
    "runtime": { "type": "string", "description": "Set an alternative project runtime" },
    "scale-to-zero": { "type": "string", "description": "Scale to zero policy of the instance (on/off/idle)" },
    "scale-to-zero-cooldown": { "type": "string", "description": "Cooldown period before scaling to zero" },
    "scale-to-zero-stateful": { "type": "boolean", "description": "Save state when scaling to zero" },
    "service": { "type": "string", "description": "Attach the new deployment to an existing service" },
    "strategy": { "type": "string", "description": "When a package of the same name exists, use this strategy when applying targets" },
    "subdomain": { "type": "array", "items": { "type": "string" }, "description": "Set the names to use when provisioning subdomains" },
    "timeout": { "type": "string", "description": "Set the timeout for remote procedure calls" },
    "vcpus": { "type": "number", "description": "Specify the number of vCPUs to allocate" },
    "volume": { "type": "array", "items": { "type": "string" }, "description": "Specify the volume mapping(s) in the form NAME:DEST or NAME:DEST:OPTIONS" },
    "workdir": { "type": "string", "description": "Set an alternative working directory" },

    "buildkit-host": { "type": "string", "description": "Path to the buildkit host" },
    "config-dir": { "type": "string", "description": "Path to KraftKit config directory" },
    "containerd-addr": { "type": "string", "description": "Address of containerd daemon socket" },
    "editor": { "type": "string", "description": "Set the text editor to open when prompt to edit a file" },
    "events-pid-file": { "type": "string", "description": "Events process ID used when running multiple unikernels" },
    "git-protocol": { "type": "string", "description": "Preferred Git protocol to use" },
    "http-unix-sock": { "type": "string", "description": "When making HTTP(S) connections, pipe requests via this shared socket" },
    "log-level": { "type": "string", "description": "Log level verbosity" },
    "log-timestamps": { "type": "boolean", "description": "Enable log timestamps" },
    "log-type": { "type": "string", "description": "Log type" },
    "manifests-dir": { "type": "string", "description": "Path to Unikraft manifest cache" },
    "metro": { "type": "string", "description": "Unikraft Cloud metro location" },
    "no-check-updates": { "type": "boolean", "description": "Do not check for updates" },
    "no-color": { "type": "boolean", "description": "Disable color output" },
    "no-emojis": { "type": "boolean", "description": "Do not use emojis in any console output" },
    "no-parallel": { "type": "boolean", "description": "Do not run internal tasks in parallel" },
    "no-prompt": { "type": "boolean", "description": "Do not prompt for user interaction" },
    "no-warn-sudo": { "type": "boolean", "description": "Do not warn on running via sudo" },
    "pager": { "type": "string", "description": "System pager to pipe output to" },
    "plugins-dir": { "type": "string", "description": "Path to KraftKit plugin directory" },
    "qemu": { "type": "string", "description": "Path to QEMU executable" },
    "runtime-dir": { "type": "string", "description": "Directory for placing runtime files" },
    "sources-dir": { "type": "string", "description": "Path to Unikraft component cache" },
    "token": { "type": "string", "description": "Unikraft Cloud access token" },
    "with-manifest": { "type": "array", "items": { "type": "string" }, "description": "Paths to package or component manifests" },
    "with-mirror": { "type": "array", "items": { "type": "string" }, "description": "Paths to mirrors of Unikraft component artifacts" }
  },
  "required": []
}
