[
  {
    "package": "@rxap/schematic-angular",
    "name": "tree-table-component",
    "options": {
      "name": "maximum",
      "headerButton": {
        "role": "form",
        "icon": "add"
      },
      "tableMethod": {
        "name": "DummyTreeTableMethod",
        "moduleSpecifier": "../dummy-tree-table.method"
      },
      "columnList": [
        {
          "name": "name"
        },
        {
          "name": "age",
          "type": "number"
        },
        {
          "name": "isActive",
          "type": "boolean"
        },
        {
          "name": "email"
        },
        {
          "name": "rating",
          "type": "number"
        },
        {
          "name": "accountStatus"
        }
      ],
      "actionList": [
        {
          "type": "callout",
          "role": "method",
          "icon": "waving_hand",
          "inHeader": true
        },
        {
          "type": "refresh",
          "role": "method",
          "icon": "loop",
          "refresh": true
        },
        {
          "type": "confirm",
          "role": "method",
          "icon": "confirmation_number",
          "inHeader": true,
          "confirm": true,
          "successMessage": "Success"
        },
        {
          "type": "fail",
          "role": "method",
          "icon": "bug_report",
          "errorMessage": "Failure"
        }
      ]
    }
  },
  {
    "package": "@rxap/schematic-angular",
    "name": "form-component",
    "options": {
      "name": "table-header-button",
      "directory": "maximum-tree-table",
      "controlList": [
        {
          "name": "name"
        }
      ]
    }
  }
]
