{
  "name": "json-schema-to-typescript",
  "$schema": "../../node_modules/nx/schemas/project-schema.json",
  "sourceRoot": "packages/json-schema-to-typescript/src",
  "projectType": "library",
  "tags": ["packages", "standalone", "scope:utilities"],
  "targets": {
    "build": {
      "executor": "@nx/js:tsc",
      "outputs": ["{options.outputPath}"],
      "options": {
        "outputPath": "dist/packages/json-schema-to-typescript",
        "main": "packages/json-schema-to-typescript/src/index.ts",
        "tsConfig": "packages/json-schema-to-typescript/tsconfig.lib.json",
        "assets": [
          "packages/json-schema-to-typescript/*.md",
          "packages/json-schema-to-typescript/docs"
        ]
      }
    },
    "lint": {
      "options": {
        "lintFilePatterns": ["packages/json-schema-to-typescript/**/*.ts"]
      }
    }
  }
}
