{
  "name": "plugin-docker",
  "$schema": "../../../node_modules/nx/schemas/project-schema.json",
  "sourceRoot": "packages/plugin/docker/src",
  "projectType": "library",
  "tags": ["plugin", "nx", "nx-plugin", "packages"],
  "targets": {
    "build": {
      "executor": "@nx/js:tsc",
      "outputs": ["{options.outputPath}"],
      "options": {
        "outputPath": "dist/packages/plugin/docker",
        "main": "packages/plugin/docker/src/index.ts",
        "tsConfig": "packages/plugin/docker/tsconfig.lib.json",
        "generateExportsField": true,
        "additionalEntryPoints": ["packages/plugin/docker/src/plugin.ts"],
        "assets": [
          "packages/plugin/docker/*.md",
          {
            "input": "./packages/plugin/docker/src",
            "glob": "**/!(*.ts)",
            "output": "./src"
          },
          {
            "input": "./packages/plugin/docker/src",
            "glob": "**/*.d.ts",
            "output": "./src"
          },
          {
            "input": "./packages/plugin/docker",
            "glob": "generators.json",
            "output": "."
          },
          {
            "input": "./packages/plugin/docker",
            "glob": "executors.json",
            "output": "."
          },
          "packages/plugin/docker/docs"
        ]
      }
    },
    "lint": {
      "options": {
        "lintFilePatterns": [
          "packages/plugin/docker/**/*.ts",
          "packages/plugin/docker/package.json",
          "packages/plugin/docker/generators.json",
          "packages/plugin/docker/executors.json"
        ]
      }
    }
  }
}
