{
  "$schema": "http://json-schema.org/schema",
  "$id": "Compose",
  "title": "",
  "type": "object",
  "properties": {
    "project": {
      "type": "string"
    },
    "feature": {
      "type": "string"
    },
    "overwrite": {
      "description": "Overwrite the existing file if it exists",
      "anyOf": [
        {
          "type": "boolean"
        },
        {
          "type": "string"
        },
        {
          "type": "array",
          "items": {
            "type": "string"
          }
        }
      ]
    },
    "replace": {
      "description": "Replace the existing file if it exists",
      "type": "boolean"
    },
    "filter": {
      "description": "Filter by the folder name of the schematic file",
      "type": "string"
    },
    "directory": {
      "description": "The starting directory where schematic files should be searched for",
      "type": "string"
    }
  },
  "required": []
}
