{
  "name": "validator",
  "$schema": "../../node_modules/nx/schemas/project-schema.json",
  "sourceRoot": "packages/validator/src",
  "projectType": "library",
  "tags": ["packages", "standalone", "scope:utilities"],
  "targets": {
    "build": {
      "executor": "@nx/js:tsc",
      "outputs": ["{options.outputPath}"],
      "options": {
        "outputPath": "dist/packages/validator",
        "main": "packages/validator/src/index.ts",
        "tsConfig": "packages/validator/tsconfig.lib.json",
        "assets": ["packages/validator/*.md", "packages/validator/docs"]
      }
    },
    "lint": {
      "options": {
        "lintFilePatterns": ["packages/validator/**/*.ts"]
      }
    }
  }
}
