{
  "$schema": "http://json-schema.org/schema",
  "$id": "autocomplete-form-control-schematic",
  "allOf": [
    {
      "$ref": "#/definitions/angular"
    },
    {
      "$ref": "#/definitions/autocompleteFormControl"
    },
    {
      "type": "object",
      "properties": {
        "formName": {
          "alias": "form",
          "type": "string",
          "description": "The name of the form where the form control should be added"
        }
      },
      "required": [
        "formName"
      ]
    }
  ],
  "definitions": {
    "angular": {
      "$ref": "../../../angular.schema.json"
    },
    "property": {
      "$ref": "../../../property.schema.json"
    },
    "upstream": {
      "$ref": "../../../upstream.schema.json"
    },
    "autocompleteFormControl": {
      "$ref": "../../../autocomplete-form-control.schema.json"
    }
  }
}
