{
  "name": "schematic-open-api",
  "$schema": "../../../node_modules/nx/schemas/project-schema.json",
  "sourceRoot": "packages/schematic/open-api/src",
  "projectType": "library",
  "tags": ["packages", "schematic"],
  "targets": {
    "build": {
      "executor": "@nx/js:tsc",
      "outputs": ["{options.outputPath}"],
      "options": {
        "outputPath": "dist/packages/schematic/open-api",
        "main": "packages/schematic/open-api/src/index.ts",
        "tsConfig": "packages/schematic/open-api/tsconfig.lib.json",
        "assets": [
          "packages/schematic/open-api/*.md",
          {
            "input": "./packages/schematic/open-api/src",
            "glob": "**/!(*.ts)",
            "output": "./src"
          },
          {
            "input": "./packages/schematic/open-api/src",
            "glob": "**/*.d.ts",
            "output": "./src"
          },
          {
            "input": "./packages/schematic/open-api",
            "glob": "collection.json",
            "output": "."
          },
          "packages/schematic/open-api/docs"
        ]
      }
    },
    "lint": {
      "options": {
        "lintFilePatterns": ["packages/schematic/open-api/**/*.ts"]
      }
    }
  }
}
