{
  "$schema": "http://json-schema.org/schema",
  "$id": "FixImplicitInternalDependencies",
  "title": "",
  "type": "object",
  "properties": {
    "projects": {
      "type": "array",
      "items": {
        "type": "string"
      },
      "default": []
    },
    "project": {
      "type": "string"
    }
  }
}
