{
  "name": "nest-vault",
  "$schema": "../../../node_modules/nx/schemas/project-schema.json",
  "sourceRoot": "packages/nest/vault/src",
  "projectType": "library",
  "tags": ["nest", "packages"],
  "targets": {
    "build": {
      "executor": "@nx/js:tsc",
      "outputs": ["{options.outputPath}"],
      "options": {
        "outputPath": "dist/packages/nest/vault",
        "tsConfig": "packages/nest/vault/tsconfig.lib.json",
        "packageJson": "packages/nest/vault/package.json",
        "main": "packages/nest/vault/src/index.ts",
        "assets": [
          "packages/nest/vault/*.md",
          "packages/nest/vault/docs",
          "packages/nest/vault/compodoc"
        ]
      },
      "configurations": {
        "production": {
          "tsConfig": "packages/nest/vault/tsconfig.lib.prod.json"
        },
        "development": {}
      },
      "defaultConfiguration": "development"
    },
    "fix-dependencies": {
      "options": {
        "dependencies": ["node-vault"]
      }
    }
  }
}
