{
  "generators": {
    "init": {
      "factory": "./src/generators/init/generator",
      "schema": "./src/generators/init/schema.json",
      "description": "Create and update configurations to use rxap package publish concept"
    },
    "fix-dependencies": {
      "factory": "./src/generators/fix-dependencies/generator",
      "schema": "./src/generators/fix-dependencies/schema.json",
      "description": "Adds missing dependencies and removes redudant dependencies of a project"
    },
    "index-export": {
      "factory": "./src/generators/index-export/generator",
      "schema": "./src/generators/index-export/schema.json",
      "description": "Generate index exports for each directory and in the src root"
    },
    "init-plugin": {
      "factory": "./src/generators/init-plugin/generator",
      "schema": "./src/generators/init-plugin/schema.json",
      "description": "init-plugin generator"
    },
    "init-buildable": {
      "factory": "./src/generators/init-buildable/generator",
      "schema": "./src/generators/init-buildable/schema.json",
      "description": "init-buildable generator"
    },
    "init-publishable": {
      "factory": "./src/generators/init-publishable/generator",
      "schema": "./src/generators/init-publishable/schema.json",
      "description": "init-publishable generator"
    },
    "expose-as-schematic": {
      "factory": "./src/generators/expose-as-schematic/generator",
      "schema": "./src/generators/expose-as-schematic/schema.json",
      "description": "expose-as-schematic generator"
    },
    "bundle-json-schema": {
      "factory": "./src/generators/bundle-json-schema/generator",
      "schema": "./src/generators/bundle-json-schema/schema.json",
      "description": "bundle-json-schema generator"
    },
    "index-json-schema": {
      "factory": "./src/generators/index-json-schema/generator",
      "schema": "./src/generators/index-json-schema/schema.json",
      "description": "index-json-schema generator"
    },
    "init-with-migrations": {
      "factory": "./src/generators/init-with-migrations/generator",
      "schema": "./src/generators/init-with-migrations/schema.json",
      "description": "init-with-migrations generator"
    },
    "add-migration": {
      "factory": "./src/generators/add-migration/generator",
      "schema": "./src/generators/add-migration/schema.json",
      "description": "add-migration generator"
    },
    "init-preset": {
      "factory": "./src/generators/init-preset/generator",
      "schema": "./src/generators/init-preset/schema.json",
      "description": "init-preset generator"
    },
    "init-schematic": {
      "factory": "./src/generators/init-schematic/generator",
      "schema": "./src/generators/init-schematic/schema.json",
      "description": "init-schematic generator"
    }
  },
  "schematics": {
    "init": {
      "factory": "./src/generators/init/index",
      "schema": "./src/generators/init/schema.json",
      "description": "Create and update configurations to use rxap package publish concept"
    },
    "fix-dependencies": {
      "factory": "./src/generators/fix-dependencies/index",
      "schema": "./src/generators/fix-dependencies/schema.json",
      "description": "Adds missing dependencies and removes redudant dependencies of a project"
    },
    "index-export": {
      "factory": "./src/generators/index-export/index",
      "schema": "./src/generators/index-export/schema.json",
      "description": "Generate index exports for each directory and in the src root"
    },
    "init-plugin": {
      "factory": "./src/generators/init-plugin/index",
      "schema": "./src/generators/init-plugin/schema.json",
      "description": "init-plugin generator"
    },
    "init-buildable": {
      "factory": "./src/generators/init-buildable/index",
      "schema": "./src/generators/init-buildable/schema.json",
      "description": "init-buildable generator"
    },
    "init-publishable": {
      "factory": "./src/generators/init-publishable/index",
      "schema": "./src/generators/init-publishable/schema.json",
      "description": "init-publishable generator"
    },
    "expose-as-schematic": {
      "factory": "./src/generators/expose-as-schematic/index",
      "schema": "./src/generators/expose-as-schematic/schema.json",
      "description": "expose-as-schematic generator"
    },
    "bundle-json-schema": {
      "factory": "./src/generators/bundle-json-schema/index",
      "schema": "./src/generators/bundle-json-schema/schema.json",
      "description": "bundle-json-schema generator"
    },
    "index-json-schema": {
      "factory": "./src/generators/index-json-schema/index",
      "schema": "./src/generators/index-json-schema/schema.json",
      "description": "index-json-schema generator"
    },
    "init-with-migrations": {
      "factory": "./src/generators/init-with-migrations/index",
      "schema": "./src/generators/init-with-migrations/schema.json",
      "description": "init-with-migrations generator"
    },
    "add-migration": {
      "factory": "./src/generators/add-migration/index",
      "schema": "./src/generators/add-migration/schema.json",
      "description": "add-migration generator"
    },
    "init-preset": {
      "factory": "./src/generators/init-preset/index",
      "schema": "./src/generators/init-preset/schema.json",
      "description": "init-preset generator"
    },
    "init-schematic": {
      "factory": "./src/generators/init-schematic/index",
      "schema": "./src/generators/init-schematic/schema.json",
      "description": "init-schematic generator"
    }
  }
}
