{
  "$schema": "http://json-schema.org/schema",
  "$id": "ProjectTarget",
  "title": "",
  "type": "object",
  "properties": {
    "projects": {
      "type": "array",
      "items": {
        "type": "string"
      }
    },
    "overwrite": {
      "type": "boolean",
      "default": false,
      "description": "Whether to overwrite existing files"
    },
    "cleanup": {
      "type": "boolean",
      "default": false,
      "description": "remove if empty object for any configuration and the options property. After configuration cleanup"
    },
    "simplify": {
      "type": "boolean",
      "default": false,
      "description": "if the property for the target is equal to the default from the nx.json then remove the property"
    },
    "reorder": {
      "type": "boolean",
      "default": false,
      "description": "reorder all target properties to be in alphabetic order"
    },
    "project": {
      "type": "string"
    }
  },
  "required": []
}
