{
  "name": "nest-dto",
  "$schema": "../../../node_modules/nx/schemas/project-schema.json",
  "sourceRoot": "packages/nest/dto/src",
  "projectType": "library",
  "tags": ["nest", "packages"],
  "targets": {
    "build": {
      "executor": "@nx/js:tsc",
      "outputs": ["{options.outputPath}"],
      "options": {
        "outputPath": "dist/packages/nest/dto",
        "tsConfig": "packages/nest/dto/tsconfig.lib.json",
        "packageJson": "packages/nest/dto/package.json",
        "main": "packages/nest/dto/src/index.ts",
        "assets": [
          "packages/nest/dto/*.md",
          "packages/nest/dto/docs",
          "packages/nest/dto/compodoc"
        ]
      },
      "configurations": {
        "production": {
          "tsConfig": "packages/nest/dto/tsconfig.lib.prod.json"
        },
        "development": {}
      },
      "defaultConfiguration": "development"
    }
  }
}
