{
  "$schema": "../../../node_modules/ng-packagr/ng-package.schema.json",
  "dest": "../../../dist/packages/angular/table-system",
  "lib": {
    "entryFile": "src/index.ts"
  },
  "assets": [
    "README.md",
    "CHANGELOG.md",
    "LICENSE",
    "theme.css",
    "LICENSE.md",
    "compodoc",
    "docs",
    {
      "input": "./packages/angular/table-system/src/generators",
      "glob": "**/!(*.ts|*.js|*.json)",
      "output": "./src/generators"
    },
    {
      "input": "./packages/angular/table-system",
      "glob": "generators.json",
      "output": "."
    }
  ],
  "allowedNonPeerDependencies": ["@nx/devkit"]
}
