{
  "name": "angular-table-system",
  "$schema": "../../../node_modules/nx/schemas/project-schema.json",
  "sourceRoot": "packages/angular/table-system/src",
  "prefix": "rxap",
  "projectType": "library",
  "tags": ["angular", "ngx", "packages", "scope:compose"],
  "targets": {
    "build": {
      "executor": "@nx/angular:package",
      "outputs": ["{workspaceRoot}/dist/{projectRoot}"],
      "options": {
        "project": "packages/angular/table-system/ng-package.json"
      },
      "configurations": {
        "production": {
          "tsConfig": "packages/angular/table-system/tsconfig.lib.prod.json"
        },
        "development": {
          "tsConfig": "packages/angular/table-system/tsconfig.lib.json"
        }
      },
      "defaultConfiguration": "production"
    },
    "component-test": {
      "options": {
        "cypressConfig": "packages/angular/table-system/cypress.config.ts"
      }
    },
    "lint": {
      "options": {
        "lintFilePatterns": [
          "packages/angular/table-system/**/*.ts",
          "packages/angular/table-system/**/*.html"
        ]
      }
    }
  }
}
