{
  "name": "nest-logger",
  "$schema": "../../../node_modules/nx/schemas/project-schema.json",
  "sourceRoot": "packages/nest/logger/src",
  "projectType": "library",
  "tags": ["nest", "packages", "scope:utilities"],
  "targets": {
    "build": {
      "executor": "@nx/js:tsc",
      "outputs": ["{options.outputPath}"],
      "options": {
        "outputPath": "dist/packages/nest/logger",
        "tsConfig": "packages/nest/logger/tsconfig.lib.json",
        "packageJson": "packages/nest/logger/package.json",
        "main": "packages/nest/logger/src/index.ts",
        "assets": [
          "packages/nest/logger/*.md",
          {
            "input": "./packages/nest/logger",
            "glob": "migrations.json",
            "output": "."
          },
          {
            "input": "./packages/nest/logger/src/migrations",
            "glob": "**/!(*.ts|*.js|*.json)",
            "output": "./src/migrations"
          },
          "packages/nest/logger/docs",
          "packages/nest/logger/compodoc"
        ]
      },
      "configurations": {
        "production": {
          "tsConfig": "packages/nest/logger/tsconfig.lib.prod.json"
        },
        "development": {}
      },
      "defaultConfiguration": "development"
    },
    "lint": {
      "options": {
        "lintFilePatterns": ["packages/nest/logger/**/*.ts"]
      }
    }
  }
}
