{
  "generators": {
    "config": {
      "factory": "./src/generators/config/generator",
      "schema": "./src/generators/config/schema.json",
      "description": "Add the executor 'localazy-download' and 'localazy-upload' and update the nx.json file"
    },
    "init": {
      "factory": "./src/generators/init/generator",
      "schema": "./src/generators/init/schema.json",
      "description": "Initialize the package in the workspace"
    }
  },
  "schematics": {
    "config": {
      "factory": "./src/generators/config/index",
      "schema": "./src/generators/config/schema.json",
      "description": "Add the executor 'localazy-download' and 'localazy-upload' and update the nx.json file"
    },
    "init": {
      "factory": "./src/generators/init/index",
      "schema": "./src/generators/init/schema.json",
      "description": "Initialize the package in the workspace"
    }
  }
}
